Week Ten: Text as Data
…
## # A tibble: 6 x 1
##   `This Etext file is presented by Project Gutenberg, in`         
##   <chr>                                                           
## 1 cooperation with World Library, Inc., from their Library of the 
## 2 Future and Shakespeare CDROMS.  Project Gutenberg often releases
## 3 Etexts that are NOT placed in the Public Domain!!               
## 4 <NA>                                                            
## 5 *This Etext has certain copyright implications you should read!*
## 6 <NA>

slice(macbeth, 500:530)

## # A tibble: 31 x 1
##    `This Etext file is presented by Project Gutenberg, in`
##    <chr>                                                  
##  1 And pour'd them down before him.                       
##  2 ANGUS. We are sent                                     
##  3 To give thee, from our royal master, thanks;           
##  4 Only to herald thee into his sight,                    
##  5 Not pay thee.                                          
##  6 ROSS. And for an earnest of a greater honor,           
##  7 He bade me, from him, call thee Thane of Cawdor.       
##  8 In which addition, hail, most worthy Thane,            
##  9 For it is thine.                                       
## 10 BANQUO. What, can the devil speak true?                
## # ... with 21 more rows
…
